<?xml version="1.0" encoding="utf-8"?>
<!-- Generator: Adobe Illustrator 21.1.0, SVG Export Plug-In . SVG Version: 6.00 Build 0)  -->
<svg version="1.1" id="Слой_1" xmlns="http://www.w3.org/2000/svg" xmlns:xlink="http://www.w3.org/1999/xlink" x="0px" y="0px"
	 viewBox="0 0 43.7 45" style="enable-background:new 0 0 43.7 45;" xml:space="preserve">
<path d="M30.3,29.4c2.9-3.1,4.7-7.3,4.7-11.9C35,7.9,27.2,0,17.5,0C7.8,0,0,7.9,0,17.5C0,27.1,7.8,35,17.5,35
	c3.9,0,7.5-1.3,10.5-3.5l13,13c0.3,0.3,0.7,0.5,1.1,0.5c0.4,0,0.8-0.2,1.1-0.5c0.6-0.6,0.6-1.6,0-2.2L30.3,29.4z M3.2,17.5
	c0-7.9,6.4-14.3,14.3-14.3c7.9,0,14.3,6.4,14.3,14.3c0,7.9-6.4,14.3-14.3,14.3S3.2,25.4,3.2,17.5z"/>
</svg>
