<?xml version="1.0" encoding="utf-8"?>
<!-- Generator: Adobe Illustrator 21.1.0, SVG Export Plug-In . SVG Version: 6.00 Build 0)  -->
<svg version="1.1" id="Слой_1" xmlns="http://www.w3.org/2000/svg" xmlns:xlink="http://www.w3.org/1999/xlink" x="0px" y="0px"
	 viewBox="0 0 61 61" style="enable-background:new 0 0 61 61;" xml:space="preserve">
<style type="text/css">
	.st0{fill:none;stroke:url(#SVGID_1_);}
</style>
<linearGradient id="SVGID_1_" gradientUnits="userSpaceOnUse" x1="30.5" y1="62.01" x2="30.5" y2="1.01" gradientTransform="matrix(1 0 0 -1 0 62.01)">
	<stop  offset="0" style="stop-color:#F2994A"/>
	<stop  offset="1" style="stop-color:#F2994A;stop-opacity:0"/>
</linearGradient>
<circle class="st0" cx="30.5" cy="30.5" r="30"/>
</svg>
