<svg xmlns="http://www.w3.org/2000/svg" xmlns:xlink="http://www.w3.org/1999/xlink">
  <symbol viewBox="0 0 159.8 107" id="logo" xmlns="http://www.w3.org/2000/svg">
    <path style="fill:#FFFFFF;" d="M88,41.6c4.3-3.4,7.3-7,7.3-12.9c0-8.7-5.2-12.3-13.2-14.4V0h-6v19.4h3.8c5.2,0,9.4,4.2,9.4,9.4
    s-4.2,9.4-9.4,9.4c-5.2,0-9.4-4.2-9.4-9.4h-5.2c0,5.9,3.4,9.5,7.7,12.9L22.3,66.2H0v3.2h6.8l-0.1,34.2H0v3.4h159.8v-3.4h-6.6
    L153,69.4h6.8v-3.2h-22.6L88,41.6z M79.9,42.5L132,66.2H27.4L79.9,42.5z M149.5,103.6H10.3L9.8,69.4h139.7V103.6z"/>
    <path style="fill:#F2994A;" d="M26.3,83c0-0.6-0.4-0.9-1.2-0.9c-0.5,0-0.7,0-0.8,0.1c-0.1,0.1-0.2,0.2-0.4,0.3c-0.1,0.1-0.3,0.2-0.5,0.2h-3.7
    c-0.1,0-0.2,0-0.3-0.1c-0.1-0.1-0.1-0.2-0.1-0.5c0-0.2,0.1-0.5,0.2-0.8c0.1-0.3,0.3-0.7,0.6-1c0.3-0.4,0.7-0.7,1.1-1
    c0.4-0.3,1-0.5,1.7-0.7c0.7-0.2,1.5-0.3,2.3-0.3c1.7,0,3.1,0.4,4.2,1.2c1.1,0.8,1.7,1.8,1.7,3c0,1.2-0.6,2.1-1.7,2.7
    c1.2,0.5,1.8,1.4,1.8,2.6c0,1.2-0.6,2.2-1.7,3s-2.6,1.2-4.3,1.2c-1,0-2-0.1-2.8-0.4c-0.8-0.3-1.4-0.6-1.9-1
    c-0.9-0.8-1.3-1.7-1.3-2.5c0-0.1,0-0.2,0.1-0.3c0.1-0.1,0.2-0.1,0.3-0.1h3.7c0.2,0,0.4,0.1,0.7,0.3c0.2,0.2,0.6,0.3,1.2,0.3
    c0.8,0,1.3-0.3,1.3-0.8c0-0.4-0.4-0.6-1.3-0.6h-1.9c-0.1,0-0.3-0.1-0.3-0.2c-0.1-0.1-0.1-0.2-0.1-0.4v-2.3c0-0.1,0-0.3,0.1-0.4
    c0.1-0.1,0.2-0.2,0.3-0.2h1.9c0.4,0,0.7,0,0.9-0.1C26.2,83.4,26.3,83.2,26.3,83z"/>
    <path style="fill:#FFFFFF;" d="M43.6,88.1h-5.4v0.1c0,0.8,0.2,1.2,0.7,1.2c0.1,0,0.3-0.1,0.5-0.3c0.2-0.2,0.4-0.3,0.6-0.3h3.5
    c0.3,0,0.4,0.1,0.4,0.4c0,0.6-0.5,1.3-1.4,1.9c-0.9,0.7-2.1,1-3.6,1c-1.5,0-2.8-0.4-3.7-1.2c-1-0.8-1.4-2-1.4-3.4v-0.9
    c0-1.4,0.5-2.5,1.5-3.4c1-0.9,2.3-1.3,3.9-1.3c1.6,0,2.9,0.5,3.7,1.5c0.9,1,1.3,2.2,1.3,3.7v0.6c0,0.1,0,0.3-0.1,0.4
    C43.9,88.1,43.8,88.1,43.6,88.1z M39.7,85.7c0-0.8-0.2-1.1-0.7-1.1c-0.5,0-0.7,0.4-0.7,1.1v0.1L39.7,85.7L39.7,85.7z"/>
    <path style="fill:#FFFFFF;" d="M54.3,82.1h3.1c0.1,0,0.2,0,0.3,0.1c0.1,0.1,0.1,0.2,0.1,0.3v9.1c0,0.1,0,0.2-0.1,0.3c-0.1,0.1-0.2,0.1-0.3,0.1
    H54c-0.1,0-0.2,0-0.3-0.1c-0.1-0.1-0.1-0.2-0.1-0.3v-3.1L52.7,90c-0.1,0.2-0.3,0.4-0.5,0.4h-1c-0.2,0-0.4-0.1-0.5-0.4l-0.9-1.5v3.1
    c0,0.1,0,0.2-0.1,0.3c-0.1,0.1-0.2,0.1-0.3,0.1H46c-0.1,0-0.2,0-0.3-0.1c-0.1-0.1-0.1-0.2-0.1-0.3v-9.1c0-0.1,0-0.2,0.1-0.3
    c0.1-0.1,0.2-0.1,0.3-0.1h3.1c0.2,0,0.4,0.1,0.6,0.4l2,3.4l2-3.4C53.9,82.2,54.1,82.1,54.3,82.1z"/>
    <path style="fill:#FFFFFF;" d="M60.4,92.1h-0.5c-0.1,0-0.2-0.1-0.3-0.2s-0.1-0.2-0.1-0.4v-2.5c0-0.1,0-0.3,0.1-0.4c0.1-0.1,0.2-0.2,0.3-0.2
    h0.1c0.5,0,0.8-0.3,0.8-0.9v-5.1c0-0.1,0-0.3,0.1-0.4c0.1-0.1,0.2-0.2,0.3-0.2h8.3c0.1,0,0.2,0.1,0.3,0.2c0.1,0.1,0.1,0.2,0.1,0.4
    v8.8c0,0.1,0,0.3-0.1,0.4c-0.1,0.1-0.2,0.2-0.3,0.2h-3.3c-0.1,0-0.2-0.1-0.3-0.2c-0.1-0.1-0.1-0.2-0.1-0.4v-6h-0.8v2.4
    c0,1.5-0.4,2.5-1.3,3.3C63,91.8,61.8,92.1,60.4,92.1z"/>
    <path style="fill:#FFFFFF;" d="M77,82.1h4.9c0.1,0,0.2,0.1,0.3,0.2c0.1,0.1,0.1,0.2,0.1,0.4v8.8c0,0.1,0,0.3-0.1,0.4c-0.1,0.1-0.2,0.2-0.3,0.2
    h-3.4c-0.1,0-0.2-0.1-0.3-0.2c-0.1-0.1-0.1-0.2-0.1-0.4v-1.5h-0.8l-0.8,1.7c-0.1,0.2-0.3,0.3-0.6,0.3h-3.7c-0.1,0-0.2,0-0.3-0.1
    c-0.1-0.1-0.1-0.2-0.1-0.3c0-0.1,0-0.2,0.1-0.3l1.5-2.8c-0.7-0.7-1.1-1.5-1.1-2.4c0-1.2,0.4-2.1,1.3-2.8
    C74.3,82.4,75.5,82.1,77,82.1z M78.1,86.6v-1.2H77c-0.6,0-0.8,0.2-0.8,0.6c0,0.4,0.3,0.6,0.8,0.6H78.1z"/>
    <path style="fill:#F2994A;" d="M90.1,83.7v3.2c0,1,0.4,1.5,1.2,1.5c0.6,0,1-0.3,1.2-1c0.1-0.2,0.1-0.4,0.2-0.4c0.1-0.1,0.2-0.1,0.4-0.1h3.4
    c0.1,0,0.2,0,0.2,0.1c0.1,0.1,0.1,0.2,0.1,0.3c0,1.1-0.3,2-0.8,2.8c-1,1.4-2.6,2.1-4.7,2.1c-1.7,0-3-0.4-4-1.3
    c-1-0.9-1.5-2.2-1.5-3.9v-3.2c0-1.7,0.5-3,1.5-3.9c1-0.9,2.4-1.3,4-1.3c2.1,0,3.7,0.7,4.7,2.1c0.6,0.7,0.8,1.7,0.8,2.8
    c0,0.1,0,0.2-0.1,0.3c-0.1,0.1-0.1,0.1-0.2,0.1h-3.4c-0.2,0-0.3,0-0.4-0.1c-0.1-0.1-0.1-0.2-0.2-0.4c-0.2-0.7-0.6-1-1.2-1
    C90.5,82.1,90.1,82.7,90.1,83.7z"/>
    <path style="fill:#FFFFFF;" d="M99.2,81.7h9.1c0.1,0,0.3,0.1,0.4,0.2c0.1,0.1,0.1,0.2,0.1,0.4v2.3c0,0.1,0,0.3-0.1,0.4
    c-0.1,0.1-0.2,0.2-0.4,0.2h-2.5v6.2c0,0.1,0,0.3-0.1,0.4c-0.1,0.1-0.2,0.2-0.3,0.2h-3.2c-0.1,0-0.3-0.1-0.4-0.2
    c-0.1-0.1-0.1-0.2-0.1-0.4v-6.2h-2.5c-0.1,0-0.3-0.1-0.4-0.2c-0.1-0.1-0.1-0.2-0.1-0.4v-2.3c0-0.1,0-0.3,0.1-0.4
    C98.9,81.8,99,81.7,99.2,81.7z"/>
    <path style="fill:#FFFFFF;" d="M120.7,86v1.5c0,1.5-0.4,2.6-1.1,3.3c-0.7,0.8-1.6,1.1-2.7,1.1c-1.1,0-1.9-0.3-2.5-0.9V95
    c0,0.1-0.1,0.3-0.1,0.4s-0.2,0.2-0.3,0.2h-3.4c-0.1,0-0.3-0.1-0.3-0.2c-0.1-0.1-0.1-0.2-0.1-0.4V82.3c0-0.1,0-0.3,0.1-0.4
    c0.1-0.1,0.2-0.2,0.3-0.2h3.1c0.1,0,0.3,0.1,0.3,0.2c0.1,0.1,0.1,0.2,0.1,0.4v0.6c0.6-0.9,1.5-1.3,2.7-1.3c1.2,0,2.1,0.4,2.8,1.1
    C120.3,83.4,120.7,84.5,120.7,86z M114.3,86.1v1.4c0,0.6,0.3,1,0.9,1c0.6,0,0.9-0.4,0.9-1.1v-1.3c0-0.8-0.3-1.1-0.9-1.1
    C114.6,85,114.3,85.4,114.3,86.1z"/>
    <path style="fill:#FFFFFF;" d="M122,87.4v-1.3c0-1.5,0.5-2.6,1.5-3.4c1-0.8,2.3-1.2,3.9-1.2c1.6,0,2.9,0.4,3.9,1.2c1,0.8,1.5,1.9,1.5,3.4v1.3
    c0,1.5-0.5,2.6-1.4,3.4c-1,0.8-2.3,1.2-3.9,1.2c-1.6,0-3-0.4-3.9-1.2C122.4,90.1,122,88.9,122,87.4z M128.1,87.6V86
    c0-0.5-0.1-0.8-0.2-1s-0.3-0.3-0.6-0.3c-0.3,0-0.5,0.1-0.6,0.3s-0.2,0.5-0.2,1v1.6c0,0.5,0.1,0.9,0.2,1c0.1,0.2,0.3,0.3,0.6,0.3
    c0.3,0,0.5-0.1,0.6-0.3C128.1,88.4,128.1,88.1,128.1,87.6z"/>
    <path style="fill:#FFFFFF;" d="M144.3,91.8H141c-0.1,0-0.3-0.1-0.4-0.2c-0.1-0.1-0.1-0.2-0.1-0.4v-3.2l-2.1,3.5c-0.1,0.1-0.2,0.2-0.4,0.2h-3.3
    c-0.1,0-0.3-0.1-0.4-0.2c-0.1-0.1-0.1-0.2-0.1-0.4v-9.1c0-0.1,0-0.3,0.1-0.4c0.1-0.1,0.2-0.2,0.4-0.2h3.3c0.1,0,0.3,0.1,0.3,0.2
    c0.1,0.1,0.1,0.2,0.1,0.4v3.2l2-3.4c0.1-0.2,0.2-0.3,0.4-0.3h3.3c0.1,0,0.3,0.1,0.4,0.2c0.1,0.1,0.1,0.2,0.1,0.4v9.1
    c0,0.1,0,0.3-0.1,0.4C144.6,91.8,144.4,91.8,144.3,91.8z M140.3,78c0-0.2,0.1-0.4,0.4-0.4h1.7c0.2,0,0.4,0.1,0.4,0.4
    c0,0.9-0.3,1.6-0.8,2.1c-0.6,0.5-1.3,0.8-2.3,0.8c-1,0-1.8-0.3-2.3-0.8c-0.6-0.5-0.8-1.2-0.8-2.1c0-0.2,0.1-0.4,0.4-0.4h1.7
    c0.2,0,0.4,0.1,0.4,0.4c0,0.6,0.2,1,0.7,1C140,78.9,140.3,78.6,140.3,78z"/>
  </symbol>
  <symbol viewBox="0 0 15 15" id="vk" xmlns="http://www.w3.org/2000/svg">
    <path style="fill:#4D76A1;" d="M7.5,15c4.1,0,7.5-3.4,7.5-7.5C15,3.4,11.6,0,7.5,0C3.4,0,0,3.4,0,7.5C0,11.6,3.4,15,7.5,15z"/>
    <path style="fill:#FFFFFF;" d="M7.2,10.8h0.6c0,0,0.2,0,0.3-0.1c0.1-0.1,0.1-0.3,0.1-0.3s0-0.8,0.4-0.9c0.4-0.1,0.8,0.8,1.3,1.1
    	c0.4,0.3,0.7,0.2,0.7,0.2l1.3,0c0,0,0.7,0,0.4-0.6c0,0-0.2-0.4-1-1.1c-0.8-0.8-0.7-0.6,0.3-2c0.6-0.8,0.8-1.3,0.8-1.5
    	c-0.1-0.2-0.5-0.1-0.5-0.1l-1.5,0c0,0-0.1,0-0.2,0c-0.1,0-0.1,0.2-0.1,0.2S9.7,6.3,9.4,6.8C8.7,7.9,8.4,8,8.3,7.9
    	c-0.3-0.2-0.2-0.7-0.2-1c0-1.1,0.2-1.5-0.3-1.7c-0.2,0-0.3-0.1-0.7-0.1c-0.5,0-1,0-1.2,0.1C5.7,5.4,5.6,5.6,5.7,5.6
    	c0.1,0,0.3,0.1,0.4,0.2C6.3,6,6.3,6.5,6.3,6.5s0.1,1.3-0.2,1.4C5.9,8,5.6,7.8,5,6.8C4.7,6.3,4.5,5.7,4.5,5.7s0-0.1-0.1-0.2
    	C4.3,5.5,4.1,5.4,4.1,5.4l-1.4,0c0,0-0.2,0-0.3,0.1c-0.1,0.1,0,0.3,0,0.3s1.1,2.6,2.3,3.9C5.9,10.9,7.2,10.8,7.2,10.8z"/>
  </symbol>
  <symbol viewBox="0 0 14.3 11.8" id="email" xmlns="http://www.w3.org/2000/svg">
    <path d="M1.4,3.6C1.6,3.8,2.1,4.2,3,4.8C3.9,5.5,4.6,6,5.1,6.4c0.1,0,0.2,0.1,0.3,0.3c0.2,0.1,0.3,0.2,0.4,0.3
			C6,7,6.1,7.1,6.3,7.2c0.2,0.1,0.3,0.2,0.5,0.2C6.9,7.5,7,7.5,7.1,7.5h0h0c0.1,0,0.3,0,0.4-0.1c0.1,0,0.3-0.1,0.5-0.2
			C8.2,7.1,8.3,7,8.4,6.9c0.1-0.1,0.3-0.2,0.4-0.3C9,6.5,9.1,6.4,9.2,6.4c0.5-0.4,1.7-1.3,3.7-2.7c0.4-0.3,0.7-0.6,1-1
			c0.3-0.4,0.4-0.8,0.4-1.3c0-0.4-0.1-0.7-0.4-0.9C13.7,0.1,13.4,0,13,0H1.3C0.9,0,0.6,0.1,0.3,0.4C0.1,0.7,0,1.1,0,1.5
			c0,0.4,0.1,0.7,0.4,1.1C0.7,3.1,1,3.4,1.4,3.6z"/>
		<path d="M13.5,4.5c-1.7,1.2-3.1,2.2-4,2.9C9.2,7.7,9,7.8,8.8,8C8.6,8.1,8.3,8.2,8,8.4C7.7,8.5,7.4,8.6,7.2,8.6h0h0
			c-0.3,0-0.6-0.1-0.9-0.2C5.9,8.2,5.7,8.1,5.5,8C5.3,7.8,5.1,7.7,4.8,7.4c-0.7-0.6-2-1.5-4-2.9C0.5,4.3,0.2,4.1,0,3.8v6.6
			c0,0.4,0.1,0.7,0.4,0.9c0.2,0.3,0.6,0.4,0.9,0.4H13c0.4,0,0.7-0.1,0.9-0.4c0.2-0.3,0.4-0.6,0.4-0.9V3.8
			C14.1,4.1,13.8,4.3,13.5,4.5z"/>
  </symbol>
  <symbol viewBox="0 0 60 60" id="key" xmlns="http://www.w3.org/2000/svg">
    <g>
    	<path d="M21.8,28.3c-0.3-0.4-0.9-0.4-1.3-0.1l-14.9,11c-0.2,0.1-0.3,0.4-0.4,0.6l-0.9,4.6c-0.1,0.3,0,0.7,0.3,0.9l10.1,10.1
    		c0.2,0.2,0.4,0.3,0.7,0.3c0.1,0,0.1,0,0.2,0l4.6-0.9c0.2,0,0.5-0.2,0.6-0.4l11-14.9c0.3-0.4,0.3-1-0.1-1.3L21.8,28.3z M19.4,53
    		l-3.7,0.7l-9.4-9.4L7,40.6L21,30.3l8.7,8.7L19.4,53z"/>
    	<path d="M12.7,41.7c-1.6,1.6-1.6,4.1,0,5.6c1.6,1.6,4.1,1.6,5.6,0c1.6-1.6,1.6-4.1,0-5.6C16.7,40.2,14.3,40.2,12.7,41.7z
    		 M16.9,45.9c-0.8,0.8-2,0.8-2.8,0c-0.8-0.8-0.8-2,0-2.8c0.8-0.8,2-0.8,2.8,0C17.7,43.9,17.7,45.1,16.9,45.9z"/>
    	<path d="M57.3,0.7L57.3,0.7l-0.4-0.4c-0.3-0.3-0.8-0.4-1.2-0.2c-0.1,0-0.2,0-0.3,0.1l-5.5,1.5c-0.7,0.2-1.2,0.7-1.4,1.4
    		c-0.2,0.7,0,1.4,0.5,1.9l0.2,0.2L45.3,9l-2.5-0.5c-0.7-0.1-1.3,0.1-1.8,0.5l-4.9,4.9c-0.5,0.5-0.7,1.1-0.5,1.8l0.5,2.5l-0.6,0.6
    		l-2.5-0.5c-0.7-0.1-1.3,0.1-1.8,0.5l-1.7,1.7c-0.8-0.8-2-0.8-2.8,0l-3.5,3.5l-0.4-0.4c-0.8-0.8-2-0.8-2.8-0.2L2.3,36.7
    		C1.9,37,1.6,37.5,1.5,38L0,45.1c-0.1,0.7,0.1,1.4,0.6,2l12.3,12.3c0.4,0.4,1,0.6,1.5,0.6c0.1,0,0.3,0,0.4,0l7.2-1.4
    		c0.5-0.1,1-0.4,1.3-0.8L36.4,40c0.6-0.9,0.6-2.1-0.2-2.8l-0.4-0.4l3.5-3.5c0.4-0.4,0.6-0.9,0.6-1.4c0-0.5-0.2-1-0.6-1.4l1.7-1.7
    		c0.5-0.5,0.7-1.1,0.5-1.8l-0.5-2.5l0.6-0.7l2.5,0.5c0.7,0.1,1.3-0.1,1.8-0.5l4.9-4.9c0.5-0.5,0.7-1.1,0.5-1.8L51,14.7l3.8-3.8
    		L55,11c0.5,0.5,1.2,0.7,1.9,0.5c0.7-0.2,1.2-0.7,1.4-1.4l1.5-5.5c0-0.1,0-0.2,0.1-0.3c0.2-0.4,0.1-0.9-0.2-1.2L57.3,0.7z
    		 M34.8,38.8L21.7,56.5c0,0-0.1,0.1-0.1,0.1L14.5,58c-0.1,0-0.1,0-0.1,0L2,45.7c0,0-0.1-0.1,0-0.1l1.4-7.2c0,0,0-0.1,0.1-0.1l0,0
    		l17.7-13.1c0,0,0.1,0,0.1,0c0,0,0.1,0,0.1,0l13.4,13.4C34.9,38.6,34.9,38.7,34.8,38.8z M56.4,9.6l-0.2-0.2c-0.8-0.8-2-0.8-2.8,0
    		l-3.8,3.8c-0.5,0.5-0.7,1.1-0.5,1.8l0.5,2.5l-4.9,4.9l-2.5-0.5c-0.7-0.1-1.3,0.1-1.8,0.5l-0.7,0.7c-0.5,0.5-0.7,1.1-0.5,1.8
    		l0.5,2.5l-1.7,1.7c-0.4,0.4-0.6,0.9-0.6,1.4c0,0.5,0.2,1,0.6,1.4l-3.5,3.5l-9.8-9.8l3.5-3.5c0.8,0.8,2,0.8,2.8,0l1.7-1.7l2.5,0.5
    		c0.7,0.1,1.3-0.1,1.8-0.5l0.7-0.7c0.5-0.5,0.7-1.1,0.5-1.8l-0.5-2.5l4.9-4.9L45,11c0.7,0.1,1.3-0.1,1.8-0.5l3.8-3.8
    		c0.4-0.4,0.6-0.9,0.6-1.4c0-0.5-0.2-1-0.6-1.4l-0.2-0.2l5.5-1.5l0.3,0.3l-2.1,2.1c-0.3,0.3-0.4,0.6-0.3,1c0.1,0.3,0.4,0.6,0.7,0.7
    		c0.3,0.1,0.7,0,1-0.3l2.1-2.1l0.3,0.3L56.4,9.6z"/>
    	<path d="M45.7,12.9l-4.9,4.9c-0.3,0.3-0.4,0.6-0.3,1c0.1,0.3,0.4,0.6,0.7,0.7c0.3,0.1,0.7,0,1-0.3l4.9-4.9c0.4-0.4,0.4-1,0-1.4
    		C46.7,12.5,46.1,12.5,45.7,12.9z"/>
    	<path d="M36.5,22L31.6,27c-0.3,0.3-0.4,0.6-0.3,1c0.1,0.3,0.4,0.6,0.7,0.7c0.3,0.1,0.7,0,1-0.3l4.9-4.9c0.4-0.4,0.4-1,0-1.4
    		C37.6,21.7,36.9,21.7,36.5,22z"/>
    </g>
  </symbol>
  <symbol viewBox="0 0 57.4 70" id="worker" xmlns="http://www.w3.org/2000/svg">
    <path d="M42.4,58.7c-0.8,0-1.4,0.6-1.4,1.4s0.6,1.4,1.4,1.4c0.8,0,1.4-0.6,1.4-1.4S43.1,58.7,42.4,58.7z"/>
    <path d="M15,58.7c-0.8,0-1.4,0.6-1.4,1.4s0.6,1.4,1.4,1.4s1.4-0.6,1.4-1.4S15.8,58.7,15,58.7z"/>
    <path d="M54.9,51.6c-1.5-2.4-3.7-4.3-6.1-5.5c-0.2-0.2-0.5-0.3-0.8-0.4c-1.8-0.8-3.7-1.1-5.6-1.1h-4.1V41c2.4-2,4.1-4.7,4.9-7.7h0.6
    	c3,0,5.5-2.5,5.5-5.5c0-1.4-0.6-2.7-1.5-3.7c0.1-0.1,0.2-0.1,0.3-0.2c0.8-0.8,1.2-1.8,1.2-2.9c0-1.8-1.2-3.3-2.8-3.9
    	c-0.5-6.3-4.9-11.7-11-13.3c-0.4-1.9-1.9-3.7-4-3.7H26c-2.1,0-3.7,1.8-4,3.7C15.9,5.4,11.5,10.7,11,17c-0.6,0.2-1.1,0.5-1.6,1
    	c-0.8,0.8-1.2,1.8-1.2,2.9c0,1.3,0.6,2.4,1.5,3.1c-0.9,1-1.5,2.3-1.5,3.7c0,3,2.5,5.5,5.5,5.5h0.6c0.7,2.5,2,4.8,3.8,6.7
    	c0.3,0.4,0.7,0.7,1.1,1v3.6H15c-1.9,0-3.8,0.4-5.6,1.1c-0.3,0-0.6,0.2-0.8,0.4c-2.5,1.2-4.6,3.1-6.1,5.5C0.9,54.1,0,57,0,60v8.6
    	C0,69.4,0.6,70,1.4,70h54.7c0.8,0,1.4-0.6,1.4-1.4V60C57.4,57,56.6,54.1,54.9,51.6z M8.2,67.3H2.7V60c0-4.2,2.1-8.1,5.5-10.5V67.3z
    	 M43.8,30.5L43.8,30.5c0-0.5,0-0.9,0-1.4V25c1.5,0,2.7,1.2,2.7,2.7S45.3,30.5,43.8,30.5z M21.9,6.6v6.1c0,0.8,0.6,1.4,1.4,1.4
    	c0.8,0,1.4-0.6,1.4-1.4V4.8c0,0,0,0,0,0V4.5c0-0.8,0.7-1.8,1.4-1.8h5.5c0.7,0,1.4,0.9,1.4,1.8v0.3c0,0,0,0,0,0v7.9
    	c0,0.8,0.6,1.4,1.4,1.4c0.8,0,1.4-0.6,1.4-1.4V6.6c4.4,1.6,7.6,5.6,8.1,10.2H13.7C14.3,12.1,17.5,8.1,21.9,6.6z M13.7,30.5
    	c-1.5,0-2.7-1.2-2.7-2.7s1.2-2.7,2.7-2.7v4.1C13.7,29.6,13.7,30,13.7,30.5L13.7,30.5z M13.7,22.3h-1.4c-0.8,0-1.4-0.6-1.4-1.4
    	c0-0.4,0.1-0.7,0.4-1c0.3-0.3,0.6-0.4,1-0.4h32.8c0.8,0,1.4,0.6,1.4,1.4c0,0.4-0.1,0.7-0.4,1c-0.3,0.3-0.6,0.4-1,0.4h-1.4h-1.4H15
    	H13.7z M16.7,31.6C16.7,31.6,16.6,31.6,16.7,31.6c-0.2-0.8-0.2-1.7-0.2-2.5V25H41v4.1c0,0.8-0.1,1.6-0.2,2.4c0,0,0,0,0,0
    	c-0.6,3-2.3,5.8-4.8,7.7c-2.1,1.7-4.7,2.5-7.3,2.5s-5.2-0.9-7.3-2.5c-0.5-0.4-1-0.8-1.4-1.2C18.3,36.3,17.1,34,16.7,31.6z
    	 M27.3,67.3H16.4v-3.1c0-0.8-0.6-1.4-1.4-1.4s-1.4,0.6-1.4,1.4v3.1h-2.7V48.1c0.9-0.3,1.8-0.6,2.7-0.7v8.5c0,0.8,0.6,1.4,1.4,1.4
    	s1.4-0.6,1.4-1.4v-8.6h3.5l7.4,7.8V67.3z M21.9,45.4v-2.5c2.1,1.1,4.4,1.7,6.8,1.7c2.4,0,4.7-0.6,6.8-1.7v2.5l-6.8,7.2L21.9,45.4z
    	 M46.5,67.3h-2.7v-3.1c0-0.8-0.6-1.4-1.4-1.4c-0.8,0-1.4,0.6-1.4,1.4v3.1H30.1V55.1l7.4-7.8H41v8.6c0,0.8,0.6,1.4,1.4,1.4
    	c0.8,0,1.4-0.6,1.4-1.4v-8.5c0.9,0.1,1.8,0.3,2.7,0.7V67.3z M54.7,67.3h-5.5V49.5c3.3,2.4,5.5,6.4,5.5,10.5V67.3z"/>
  </symbol>
  <symbol viewBox="0 0 70 58.7" id="tractor" xmlns="http://www.w3.org/2000/svg">
    <g>
    	<path d="M12.4,40.6c-3.1,0-5.6,2.5-5.6,5.6s2.5,5.6,5.6,5.6c3.1,0,5.6-2.5,5.6-5.6S15.5,40.6,12.4,40.6z M12.4,49.7
    		c-1.9,0-3.4-1.5-3.4-3.4s1.5-3.4,3.4-3.4s3.4,1.5,3.4,3.4S14.3,49.7,12.4,49.7z"/>
    	<path d="M60.6,27.1l3.1,2.1c0.2,0.1,0.4,0.2,0.6,0.2h4.5c0.6,0,1.1-0.5,1.1-1.1v-4.5c0-0.6-0.5-1.1-1.1-1.1H67l-3.1-2.1
    		c-0.2-0.1-0.4-0.2-0.6-0.2h-4.5V6.8h1.1c0.6,0,1.1-0.5,1.1-1.1V1.1C61,0.5,60.5,0,59.8,0H35c-0.3,0-0.6,0.1-0.8,0.3l-4.5,4.5
    		c-0.3,0.3-0.4,0.8-0.2,1.2c0.2,0.4,0.6,0.7,1,0.7h26v5.6h-3.4c-0.6,0-1.1,0.5-1.1,1.1v5.6c0,0.6-0.5,1.1-1.1,1.1H44
    		c-0.6,0-1.1,0.5-1.1,1.1V26c0,0.6,0.5,1.1,1.1,1.1h2.2l-9.6,7c-0.3,0.2-0.5,0.6-0.5,0.9v3.4h-6.8v-2.3h1.1c0.6,0,1.1-0.5,1.1-1.1
    		v-3.4H35c0.3,0,0.6-0.1,0.8-0.3l2.3-2.3l-1.6-1.6l-1.9,1.9h-2.9v-2.9l10.2-10.2l1.5,1.5l1.6-1.6l-4.5-4.5l-1.6,1.6l1.5,1.5
    		l-8.6,8.6v-1.8c0-0.6-0.5-1.1-1.1-1.1h-3.4v-1.1c0-0.6-0.5-1.1-1.1-1.1h-1.1v-5.6c0-1.9-1.5-3.4-3.4-3.4h-3.4v2.3h3.4
    		c0.6,0,1.1,0.5,1.1,1.1v5.6h-1.1c-0.6,0-1.1,0.5-1.1,1.1v3.4h-7.9C10.6,22.6,9,24.1,9,26v9.6c-0.6,0.2-1.2,0.4-1.7,0.7l-0.9-0.9
    		c-0.4-0.4-1.2-0.4-1.6,0l-3.4,3.4c-0.4,0.4-0.4,1.2,0,1.6l0.9,0.9c-0.3,0.5-0.5,1.1-0.7,1.7H1.1C0.5,42.9,0,43.4,0,44v4.5
    		c0,0.6,0.5,1.1,1.1,1.1h0.5c0.2,0.6,0.4,1.1,0.7,1.7l-0.9,0.9c-0.4,0.4-0.4,1.2,0,1.6l3.4,3.4c0.4,0.4,1.2,0.4,1.6,0l0.9-0.9
    		c0.6,0.3,1.1,0.5,1.7,0.7v0.5c0,0.6,0.5,1.1,1.1,1.1h4.5c0.6,0,1.1-0.5,1.1-1.1v-0.5c0.6-0.2,1.2-0.4,1.7-0.7l0.9,0.9
    		c0.4,0.4,1.2,0.4,1.6,0l3.4-3.4c0.4-0.4,0.4-1.2,0-1.6l-0.9-0.9c0.3-0.5,0.5-1.1,0.7-1.7h0.5c0.6,0,1.1-0.5,1.1-1.1v-1.1h2.3v1.1
    		c0,0.6,0.5,1.1,1.1,1.1h9c0.6,0,1.1-0.5,1.1-1.1v-1.1h3.8c0.3,1.2,0.8,2.3,1.4,3.4l-0.4,0.4c-0.2,0.2-0.3,0.5-0.3,0.8
    		c0,0.3,0.1,0.6,0.3,0.8l3.4,3.4c0.4,0.4,1.2,0.4,1.6,0l0.4-0.4c1.1,0.6,2.2,1.1,3.4,1.4v0.4c0,0.6,0.5,1.1,1.1,1.1h4.5
    		c0.6,0,1.1-0.5,1.1-1.1v-0.4c1.2-0.3,2.3-0.8,3.4-1.4l0.3,0.3c0.2,0.2,0.5,0.3,0.8,0.3c0.3,0,0.6-0.1,0.8-0.3l3.4-3.4
    		c0.4-0.4,0.4-1.2,0-1.6l-0.3-0.3c0.6-1.1,1.1-2.2,1.4-3.4h0.4c0.6,0,1.1-0.5,1.1-1.1v-4.5c0-0.6-0.5-1.1-1.1-1.1h-0.4
    		c-0.3-1.2-0.8-2.3-1.4-3.4l0.4-0.4c0.2-0.2,0.3-0.5,0.3-0.8c0-0.3-0.1-0.6-0.3-0.8L64,31.9c-0.4-0.4-1.2-0.4-1.6,0l-0.4,0.4
    		c-1.1-0.6-2.2-1.1-3.4-1.4v-0.4c0-0.6-0.5-1.1-1.1-1.1h-1.1v-2.3H60.6z M35.5,2.3h23.2v2.3H33.2L35.5,2.3z M66,24.6
    		c0.2,0.1,0.4,0.2,0.6,0.2h1.1v2.3h-3L61.6,25c-0.2-0.1-0.4-0.2-0.6-0.2h-5.2l2.3-2.3h4.8L66,24.6z M45.2,22.6h5.6
    		c1.9,0,3.4-1.5,3.4-3.4v-4.5h2.3V21l-3.9,3.9h-7.4V22.6z M36.1,40.6v2.3h-6.8v-2.3H36.1z M27.1,26v-3.4h2.3v11.3h-4.5v-6.8H26
    		C26.6,27.1,27.1,26.6,27.1,26z M22.6,20.3h2.3v4.5h-2.3V20.3z M12.4,24.8h3.4v4.5h-4.5V26C11.3,25.3,11.8,24.8,12.4,24.8z
    		 M22.6,47.4h-0.3c-0.5,0-1,0.4-1.1,0.9c-0.2,1-0.6,1.9-1.1,2.7c-0.3,0.4-0.2,1,0.2,1.4l0.7,0.7l-1.8,1.8l-0.7-0.7
    		c-0.4-0.4-0.9-0.4-1.4-0.2c-0.8,0.5-1.7,0.9-2.7,1.1c-0.5,0.1-0.9,0.6-0.9,1.1v0.3h-2.3v-0.3c0-0.5-0.4-1-0.9-1.1
    		c-0.9-0.2-1.8-0.6-2.7-1.1c-0.4-0.3-1-0.2-1.4,0.2l-0.7,0.7l-1.8-1.8l0.7-0.7C4.9,52,5,51.4,4.7,51c-0.5-0.9-0.9-1.8-1.1-2.7
    		c-0.1-0.5-0.6-0.9-1.1-0.9H2.3v-2.3h0.3c0.5,0,1-0.4,1.1-0.9c0.2-1,0.6-1.9,1.1-2.7c0.3-0.4,0.2-1-0.2-1.4l-0.7-0.7l1.8-1.8
    		l0.7,0.7c0.4,0.4,0.9,0.4,1.4,0.2c0.8-0.5,1.7-0.9,2.7-1.1c0.5-0.1,0.9-0.6,0.9-1.1v-0.3h2.3v0.3c0,0.5,0.4,1,0.9,1.1
    		c0.9,0.2,1.8,0.6,2.7,1.1c0.4,0.3,1,0.2,1.4-0.2l0.7-0.7l1.8,1.8l-0.7,0.7c-0.4,0.4-0.4,0.9-0.2,1.4c0.5,0.9,0.9,1.8,1.1,2.7
    		c0.1,0.5,0.6,0.9,1.1,0.9h0.3V47.4z M24.8,45.2V44c0-0.6-0.5-1.1-1.1-1.1h-0.5c-0.2-0.6-0.4-1.1-0.7-1.7l0.9-0.9
    		c0.4-0.4,0.4-1.2,0-1.6L20,35.3c-0.4-0.4-1.2-0.4-1.6,0l-0.9,0.9c-0.6-0.3-1.1-0.5-1.7-0.7V35c0-0.6-0.5-1.1-1.1-1.1h-3.4v-2.3h5.6
    		c0.6,0,1.1-0.5,1.1-1.1v-5.6h2.3V26c0,0.6,0.5,1.1,1.1,1.1h1.1V35c0,0.6,0.5,1.1,1.1,1.1h3.4v9H24.8z M29.4,47.4v-2.3h6.8v2.3H29.4
    		z M57.4,32.9c1.5,0.3,2.9,0.9,4.2,1.7c0.4,0.3,1,0.2,1.4-0.1l0.2-0.2l1.8,1.8l-0.2,0.2c-0.4,0.4-0.4,1-0.1,1.4
    		c0.9,1.3,1.5,2.7,1.7,4.2c0.1,0.5,0.6,0.9,1.1,0.9h0.2v2.3h-0.2c-0.5,0-1,0.4-1.1,0.9c-0.3,1.5-0.9,3-1.7,4.2
    		c-0.3,0.4-0.2,1,0.1,1.4l0.2,0.2l-1.8,1.8L63,53.5c-0.4-0.4-1-0.4-1.4-0.1c-1.3,0.9-2.7,1.4-4.2,1.7c-0.5,0.1-0.9,0.6-0.9,1.1v0.2
    		h-2.3v-0.2c0-0.5-0.4-1-0.9-1.1c-1.5-0.3-2.9-0.9-4.2-1.7c-0.4-0.3-1-0.2-1.4,0.1l-0.2,0.2l-1.8-1.8l0.2-0.2c0.4-0.4,0.4-1,0.1-1.4
    		c-0.9-1.3-1.5-2.7-1.7-4.2c-0.1-0.5-0.6-0.9-1.1-0.9h-0.2v-2.3h0.2c0.5,0,1-0.4,1.1-0.9c0.3-1.5,0.9-3,1.7-4.2
    		c0.3-0.4,0.2-1-0.1-1.4l-0.2-0.2l1.8-1.8l0.2,0.2c0.4,0.4,1,0.4,1.4,0.1c1.3-0.9,2.7-1.4,4.2-1.7c0.5-0.1,0.9-0.6,0.9-1.1v-0.2h2.3
    		v0.2C56.5,32.4,56.8,32.8,57.4,32.9z M54.2,29.4h-1.1c-0.6,0-1.1,0.5-1.1,1.1v0.4c-1.2,0.3-2.3,0.8-3.4,1.4l-0.3-0.3
    		c-0.2-0.2-0.5-0.3-0.8-0.3c-0.3,0-0.6,0.1-0.8,0.3l-3.4,3.4c-0.4,0.4-0.4,1.2,0,1.6l0.3,0.3c-0.6,1.1-1.1,2.2-1.4,3.4h-0.4
    		c-0.6,0-1.1,0.5-1.1,1.1v3.4h-2.3v-9.6L50,27.1h4.1V29.4z"/>
    	<path d="M47.4,44c0,4.4,3.5,7.9,7.9,7.9c4.4,0,7.9-3.5,7.9-7.9s-3.5-7.9-7.9-7.9C51,36.1,47.4,39.7,47.4,44z M61,44
    		c0,3.1-2.5,5.6-5.6,5.6c-3.1,0-5.6-2.5-5.6-5.6c0-3.1,2.5-5.6,5.6-5.6C58.4,38.4,61,40.9,61,44z"/>
    </g>
  </symbol>
  <symbol viewBox="0 0 53.1 70" id="medal" xmlns="http://www.w3.org/2000/svg">
    <g>
    	<path d="M35.5,8.7c-7.7-3.9-17-2.4-23.1,3.7c-7.1,7.1-7.8,18.4-1.7,26.3c0.2,0.3,0.5,0.4,0.9,0.4c0.2,0,0.5-0.1,0.7-0.2
    		c0.5-0.4,0.6-1.1,0.2-1.5C7,30.4,7.6,20.3,14,14c5.4-5.4,13.7-6.8,20.5-3.3c0.5,0.3,1.2,0.1,1.5-0.5C36.2,9.7,36,9,35.5,8.7z"/>
    	<path d="M44.3,17.5C44,17,43.3,16.8,42.8,17c-0.5,0.3-0.8,0.9-0.5,1.5c3.5,6.8,2.1,15.1-3.3,20.5c-6.3,6.3-16.4,6.9-23.4,1.5
    		c-0.5-0.4-1.2-0.3-1.5,0.2c-0.4,0.5-0.3,1.2,0.2,1.5c3.6,2.8,7.9,4.2,12.2,4.2c5.1,0,10.2-2,14.1-5.8
    		C46.7,34.5,48.2,25.2,44.3,17.5z"/>
    	<path d="M41.4,13.3c-0.3-0.3-0.6-0.6-0.9-0.9c-0.3-0.3-0.6-0.6-0.9-0.9c-0.5-0.4-1.2-0.4-1.6,0.1c-0.4,0.5-0.4,1.2,0.1,1.6
    		c0.3,0.2,0.5,0.5,0.8,0.8c0.3,0.3,0.5,0.5,0.8,0.8c0.2,0.2,0.5,0.4,0.8,0.4c0.3,0,0.5-0.1,0.7-0.3C41.8,14.5,41.8,13.8,41.4,13.3z"
    		/>
    	<path d="M52.5,28.5c0.7-1.2,0.7-2.7,0-3.9l-1.5-2.4c-0.2-0.3-0.3-0.7-0.2-1l0.4-2.7c0.2-1.4-0.4-2.8-1.5-3.6l-2.2-1.6
    		c-0.3-0.2-0.5-0.5-0.6-0.9l-0.7-2.7c-0.3-1.4-1.4-2.4-2.8-2.8l-2.7-0.7c-0.4-0.1-0.7-0.3-0.9-0.6l-1.6-2.2
    		c-0.8-1.1-2.2-1.7-3.6-1.5l-2.7,0.4c-0.4,0.1-0.7,0-1-0.2l-2.4-1.5c-1.2-0.7-2.7-0.7-3.9,0L22.2,2c-0.3,0.2-0.7,0.3-1,0.2l-2.7-0.4
    		c-1.4-0.2-2.8,0.4-3.6,1.5l-1.6,2.2c-0.2,0.3-0.5,0.5-0.9,0.6L9.5,6.8C8.2,7.1,7.1,8.2,6.8,9.5l-0.7,2.7c-0.1,0.4-0.3,0.7-0.6,0.9
    		l-2.2,1.6c-1.1,0.8-1.7,2.2-1.5,3.6l0.4,2.7c0.1,0.4,0,0.7-0.2,1l-1.5,2.4c-0.7,1.2-0.7,2.7,0,3.9L2,30.9c0.2,0.3,0.3,0.7,0.2,1
    		l-0.4,2.7c-0.2,1.4,0.4,2.8,1.5,3.6l2.2,1.6c0.3,0.2,0.5,0.5,0.6,0.9l0.7,2.7c0.3,1.4,1.4,2.4,2.8,2.8l1.1,0.3L3,63.6
    		c-0.2,0.4-0.1,0.8,0.1,1.1c0.2,0.3,0.6,0.5,1,0.4l6.2-0.7l3.5,5.1c0.2,0.3,0.5,0.5,0.9,0.5c0,0,0.1,0,0.1,0c0.4,0,0.7-0.3,0.9-0.6
    		l7.8-17.4l1,0.6c0.6,0.4,1.3,0.6,2,0.6c0.7,0,1.4-0.2,2-0.6l1-0.6l7.8,17.5c0.2,0.4,0.5,0.6,0.9,0.6c0,0,0.1,0,0.1,0
    		c0.4,0,0.7-0.2,0.9-0.5l3.5-5.1l6.2,0.7c0.4,0,0.8-0.1,1-0.4c0.2-0.3,0.3-0.7,0.1-1.1l-7.7-17.1l1.1-0.3c1.4-0.3,2.4-1.4,2.8-2.8
    		l0.7-2.7c0.1-0.4,0.3-0.7,0.6-0.9l2.2-1.6c1.1-0.8,1.7-2.2,1.5-3.6l-0.4-2.7c-0.1-0.4,0-0.7,0.2-1L52.5,28.5z M14.6,66.7l-2.8-4
    		c-0.2-0.3-0.6-0.5-1-0.5l-4.9,0.6l7-15.5c0.1,0.1,0.2,0.2,0.3,0.3l1.6,2.2c0.2,0.2,0.3,0.4,0.5,0.6l-3.7,8.2
    		c-0.2,0.6,0,1.2,0.6,1.5c0.1,0.1,0.3,0.1,0.5,0.1c0.4,0,0.8-0.2,1-0.7l3.7-8.2c0.4,0,0.7,0,1.1,0l2.7-0.4c0.2,0,0.3,0,0.5,0
    		L14.6,66.7z M47.3,62.8l-4.9-0.6c-0.4,0-0.8,0.1-1,0.5l-2.8,4l-7.1-15.8c0.1,0,0.3,0,0.5,0l2.7,0.4c0.4,0.1,0.8,0.1,1.1,0l3.7,8.2
    		c0.2,0.4,0.6,0.7,1,0.7c0.2,0,0.3,0,0.5-0.1c0.6-0.2,0.8-0.9,0.6-1.5l-3.7-8.2c0.2-0.2,0.3-0.3,0.5-0.5l1.6-2.2
    		c0.1-0.1,0.2-0.3,0.4-0.4L47.3,62.8z M50.6,27.3l-1.5,2.4c-0.5,0.8-0.6,1.7-0.5,2.5l0.4,2.7c0.1,0.6-0.1,1.2-0.6,1.5l-2.2,1.6
    		c-0.7,0.5-1.2,1.3-1.4,2.2L44.1,43c-0.1,0.6-0.6,1-1.1,1.1l-2.7,0.7c-0.9,0.2-1.6,0.7-2.2,1.4l-1.6,2.2c-0.3,0.5-0.9,0.7-1.5,0.6
    		l-2.7-0.4c-0.9-0.1-1.8,0-2.5,0.5l-2.4,1.5c-0.5,0.3-1.1,0.3-1.6,0l-2.4-1.5c-0.6-0.4-1.3-0.5-2-0.5c-0.2,0-0.4,0-0.6,0l-2.7,0.4
    		c-0.6,0.1-1.2-0.1-1.5-0.6l-1.6-2.2c-0.5-0.7-1.3-1.2-2.2-1.4l-2.7-0.7c-0.6-0.1-1-0.6-1.1-1.1l-0.7-2.7c-0.2-0.9-0.7-1.6-1.4-2.2
    		l-2.2-1.6C4.1,36.2,3.9,35.6,4,35l0.4-2.7c0.1-0.9,0-1.8-0.5-2.5l-1.5-2.4c-0.3-0.5-0.3-1.1,0-1.6l1.5-2.4c0.5-0.8,0.6-1.7,0.5-2.5
    		L4,18.1c-0.1-0.6,0.1-1.2,0.6-1.5l2.2-1.6c0.7-0.5,1.2-1.3,1.4-2.2l0.7-2.7c0.1-0.6,0.6-1,1.1-1.1l2.7-0.7c0.9-0.2,1.6-0.7,2.2-1.4
    		l1.6-2.2c0.3-0.5,0.9-0.7,1.5-0.6l2.7,0.4c0.9,0.1,1.8,0,2.5-0.5l2.4-1.5c0.5-0.3,1.1-0.3,1.6,0l2.4,1.5c0.8,0.5,1.7,0.6,2.5,0.5
    		L35,4c0.6-0.1,1.2,0.1,1.5,0.6l1.6,2.2c0.5,0.7,1.3,1.2,2.2,1.4L43,8.9c0.6,0.1,1,0.6,1.1,1.1l0.7,2.7c0.2,0.9,0.7,1.6,1.4,2.2
    		l2.2,1.6c0.5,0.3,0.7,0.9,0.6,1.5l-0.4,2.7c-0.1,0.9,0,1.8,0.5,2.5l1.5,2.4C50.9,26.2,50.9,26.8,50.6,27.3z"/>
    	<path d="M39.4,23.1c-0.2-0.7-0.9-1.3-1.7-1.4L31.1,21l-2.8-6.1c-0.3-0.7-1-1.2-1.8-1.2c-0.8,0-1.5,0.4-1.8,1.2L21.9,21l-6.6,0.8
    		c-0.8,0.1-1.4,0.6-1.7,1.4c-0.2,0.7,0,1.5,0.5,2.1l4.9,4.5l-1.3,6.6c-0.2,0.8,0.1,1.5,0.8,2c0.4,0.3,0.8,0.4,1.2,0.4
    		c0.3,0,0.7-0.1,1-0.3l5.8-3.3l5.8,3.3c0.7,0.4,1.5,0.3,2.1-0.1c0.6-0.5,0.9-1.2,0.8-2L34,29.7l4.9-4.5
    		C39.5,24.7,39.7,23.9,39.4,23.1z M32,28.5c-0.3,0.3-0.4,0.6-0.3,1l1.3,6.7l-6-3.3c-0.2-0.1-0.4-0.1-0.5-0.1c-0.2,0-0.4,0-0.5,0.1
    		l-6,3.3l1.3-6.7c0.1-0.4-0.1-0.8-0.3-1l-5-4.6l6.8-0.8c0.4,0,0.7-0.3,0.9-0.6l2.9-6.2l2.9,6.2c0.2,0.3,0.5,0.6,0.9,0.6l6.8,0.8
    		L32,28.5z"/>
    </g>
  </symbol>
  <symbol viewBox="0 0 10.6 18" id="left-arrow" xmlns="http://www.w3.org/2000/svg">
    <path d="M0.3,9.7l8,8C8.5,17.9,8.7,18,9,18c0.3,0,0.5-0.1,0.7-0.3l0.6-0.6c0.4-0.4,0.4-1,0-1.4L3.6,9l6.7-6.7
	c0.2-0.2,0.3-0.4,0.3-0.7c0-0.3-0.1-0.5-0.3-0.7L9.7,0.3C9.5,0.1,9.3,0,9,0C8.7,0,8.5,0.1,8.3,0.3l-8,8C0.1,8.5,0,8.7,0,9
	C0,9.3,0.1,9.5,0.3,9.7z"/>
  </symbol>

  <symbol viewBox="0 0 10.6 18" id="right-arrow" xmlns="http://www.w3.org/2000/svg">
    <path d="M10.3,8.3l-8-8C2.1,0.1,1.8,0,1.6,0C1.3,0,1.1,0.1,0.9,0.3L0.3,0.9c-0.4,0.4-0.4,1,0,1.4L7,9l-6.7,6.7
	C0.1,15.9,0,16.2,0,16.4c0,0.3,0.1,0.5,0.3,0.7l0.6,0.6C1.1,17.9,1.3,18,1.6,18c0.3,0,0.5-0.1,0.7-0.3l8-8c0.2-0.2,0.3-0.4,0.3-0.7
	C10.6,8.7,10.5,8.5,10.3,8.3z"/>
  </symbol>
  <symbol viewBox="0 0 10.6 18" id="pluse" xmlns="http://www.w3.org/2000/svg">
    <path d="M0.5,8C0.2,8,0,7.8,0,7.5C0,7.2,0.2,7,0.5,7H7V0.5C7,0.2,7.2,0,7.5,0C7.8,0,8,0.2,8,0.5V7h6.4C14.8,7,15,7.2,15,7.5
	C15,7.8,14.8,8,14.5,8H8v6.4C8,14.8,7.8,15,7.5,15C7.2,15,7,14.8,7,14.5V8H0.5z"/>
  </symbol>
  <symbol viewBox="0 0 32.3 36.3" id="play" xmlns="http://www.w3.org/2000/svg">
    <path d="M30.8,15.6c2,1.2,2,4,0,5.2L4.5,35.9c-2,1.2-4.5-0.3-4.5-2.6L0,3c0-2.3,2.5-3.8,4.5-2.6L30.8,15.6z"/>
  </symbol>
  <symbol viewBox="0 0 12 8.8" id="check" xmlns="http://www.w3.org/2000/svg">
    <path d="M11.8,0.2c-0.2-0.2-0.6-0.2-0.8,0L3.8,7.4L1,4.6c-0.2-0.2-0.6-0.2-0.8,0c-0.2,0.2-0.2,0.6,0,0.8l3.2,3.2
	c0.2,0.2,0.6,0.2,0.8,0L11.8,1C12.1,0.8,12.1,0.4,11.8,0.2z"/>
  </symbol>
  <symbol viewBox="0 0 22 22" id="place" xmlns="http://www.w3.org/2000/svg">
    <path d="M11,9.5c1.4,0,2.6-1.2,2.6-2.6S12.4,4.4,11,4.4C9.6,4.4,8.4,5.6,8.4,7S9.6,9.5,11,9.5z M11,5.1c1,0,1.8,0.8,1.8,1.8
    	S12,8.8,11,8.8C10,8.8,9.2,8,9.2,7S10,5.1,11,5.1z"/>
    <path d="M10.9,20.1l5.6-8.1c2.1-2.8,1.8-7.4-0.7-9.9c-1.3-1.3-3.1-2.1-5-2.1C9.1,0,7.3,0.7,6,2.1c-2.5,2.5-2.8,7.1-0.7,9.9
    	L10.9,20.1z M6.5,2.6c1.2-1.2,2.8-1.8,4.5-1.8c1.7,0,3.3,0.7,4.5,1.8c2.2,2.2,2.5,6.4,0.6,8.9l-5,7.3l-5-7.3C4,9,4.3,4.8,6.5,2.6z"
    	/>
    <path d="M15.4,15.8c-0.2,0-0.4,0.1-0.4,0.3c0,0.2,0.1,0.4,0.3,0.4c3.9,0.5,5.9,1.7,5.9,2.4c0,1-3.9,2.4-10.3,2.4
    	c-6.4,0-10.3-1.4-10.3-2.4c0-0.7,2.1-1.9,5.9-2.4c0.2,0,0.3-0.2,0.3-0.4c0-0.2-0.2-0.3-0.4-0.3C2.7,16.2,0,17.5,0,18.9
    	C0,20.4,3.8,22,11,22s11-1.6,11-3.1C22,17.5,19.3,16.2,15.4,15.8z"/>
  </symbol>
  <symbol viewBox="0 0 22 22" id="clock" xmlns="http://www.w3.org/2000/svg">
    <path d="M11,0C4.9,0,0,4.9,0,11c0,6.1,4.9,11,11,11c6.1,0,11-4.9,11-11C22,4.9,17.1,0,11,0z M11.5,21v-1.9c0-0.3-0.2-0.5-0.5-0.5
    	s-0.5,0.2-0.5,0.5V21c-5.2-0.2-9.3-4.4-9.6-9.6h1.9c0.3,0,0.5-0.2,0.5-0.5s-0.2-0.5-0.5-0.5H1C1.2,5.4,5.4,1.2,10.5,1v1.9
    	c0,0.3,0.2,0.5,0.5,0.5s0.5-0.2,0.5-0.5V1c5.2,0.2,9.3,4.4,9.6,9.6h-1.9c-0.3,0-0.5,0.2-0.5,0.5s0.2,0.5,0.5,0.5h0H21
    	C20.8,16.6,16.6,20.8,11.5,21z"/>
    <path d="M16,15.4l-4.5-4.6V6c0-0.3-0.2-0.5-0.5-0.5c-0.3,0-0.5,0.2-0.5,0.5v5c0,0.1,0,0.2,0.1,0.3l4.6,4.7c0.2,0.2,0.5,0.2,0.7,0
    	C16.2,15.9,16.2,15.6,16,15.4z"/>
  </symbol>
  <symbol viewBox="0 0 22 22" id="call" xmlns="http://www.w3.org/2000/svg">
    <path d="M21.4,17L17,14c-0.6-0.4-1.3-0.3-1.7,0.3L13.9,16c-0.2,0.2-0.5,0.3-0.7,0.1L13,16c-0.8-0.4-1.8-1-3.9-3.1
  		C7,10.9,6.5,9.8,6,9L5.9,8.8C5.8,8.5,5.8,8.2,6,8.1l1.7-1.3C8.2,6.4,8.4,5.6,8,5L5,0.6C4.6,0,3.9-0.2,3.3,0.2L1.4,1.3
  		c-0.6,0.3-1,0.9-1.2,1.6c-0.7,2.4-0.2,6.7,6,12.9c4.9,4.9,8.6,6.3,11.1,6.3c0.6,0,1.2-0.1,1.7-0.2c0.7-0.2,1.2-0.6,1.6-1.2l1.1-1.9
  		C22.2,18.1,22,17.4,21.4,17z M21.2,18.3l-1.1,1.9c-0.2,0.4-0.6,0.7-1.1,0.9c-2.3,0.6-6.2,0.1-12.2-5.9c-6-6-6.5-9.9-5.9-12.2
  		c0.1-0.5,0.4-0.9,0.9-1.1l1.9-1.1C3.9,0.7,4.3,0.7,4.4,1L6,3.4l1.4,2C7.5,5.7,7.5,6,7.3,6.2L5.6,7.5C5.1,7.9,4.9,8.6,5.3,9.1
  		l0.1,0.2c0.5,0.9,1.1,1.9,3.2,4.1c2.1,2.1,3.2,2.7,4.1,3.2l0.2,0.1c0.6,0.3,1.3,0.2,1.6-0.3l1.3-1.7c0.2-0.2,0.5-0.3,0.8-0.1l4.5,3
  		C21.3,17.7,21.3,18.1,21.2,18.3z"/>
  	<path d="M12.5,3.7c3.4,0,6.2,2.8,6.2,6.2c0,0.2,0.2,0.4,0.4,0.4c0.2,0,0.4-0.2,0.4-0.4c0-3.8-3.1-7-7-7c-0.2,0-0.4,0.2-0.4,0.4
  		C12.1,3.5,12.3,3.7,12.5,3.7z"/>
  	<path d="M12.5,5.9c2.2,0,4,1.8,4,4c0,0.2,0.2,0.4,0.4,0.4c0.2,0,0.4-0.2,0.4-0.4c0-2.6-2.1-4.8-4.8-4.8c-0.2,0-0.4,0.2-0.4,0.4
  		S12.3,5.9,12.5,5.9z"/>
  	<path d="M12.5,8.1c1,0,1.8,0.8,1.8,1.8c0,0.2,0.2,0.4,0.4,0.4c0.2,0,0.4-0.2,0.4-0.4c0-1.4-1.1-2.6-2.6-2.6c-0.2,0-0.4,0.2-0.4,0.4
  		C12.1,7.9,12.3,8.1,12.5,8.1z"/>
  </symbol>
  <symbol viewBox="0 0 22 15.6" id="mail" xmlns="http://www.w3.org/2000/svg">
    <path d="M17.8,12.1c-0.1,0-0.2,0-0.2-0.1l-4.1-3.8c-0.1-0.1-0.1-0.4,0-0.5c0.1-0.1,0.4-0.2,0.5,0l4.1,3.8c0.1,0.1,0.1,0.4,0,0.5
    	C18,12,17.9,12.1,17.8,12.1z"/>
    <path d="M4.2,12.1c-0.1,0-0.2,0-0.3-0.1c-0.1-0.1-0.1-0.4,0-0.5L8,7.6c0.1-0.1,0.4-0.1,0.5,0c0.1,0.1,0.1,0.4,0,0.5L4.4,12
    	C4.4,12,4.3,12.1,4.2,12.1z"/>
    <path d="M20.2,15.6H1.8c-1,0-1.8-0.8-1.8-1.8V1.8C0,0.8,0.8,0,1.8,0h18.5c1,0,1.8,0.8,1.8,1.8v12.1C22,14.8,21.2,15.6,20.2,15.6z
    	 M1.8,0.7c-0.6,0-1.1,0.5-1.1,1.1v12.1c0,0.6,0.5,1.1,1.1,1.1h18.5c0.6,0,1.1-0.5,1.1-1.1V1.8c0-0.6-0.5-1.1-1.1-1.1H1.8z"/>
    <path d="M11,9.6c-0.5,0-0.9-0.2-1.3-0.5L0.6,1.2c-0.1-0.1-0.2-0.4,0-0.5c0.1-0.1,0.4-0.2,0.5,0l9.1,7.9c0.5,0.4,1.2,0.4,1.7,0
    	l9.1-7.9c0.1-0.1,0.4-0.1,0.5,0c0.1,0.1,0.1,0.4,0,0.5l-9.1,7.9C11.9,9.4,11.5,9.6,11,9.6z"/>
  </symbol>
  <symbol viewBox="0 0 46.2 30" id="delivery" xmlns="http://www.w3.org/2000/svg">
    <path d="M35.4,20.8c2.5,0,4.6,2.1,4.6,4.6S37.9,30,35.4,30c-2.5,0-4.6-2.1-4.6-4.6S32.8,20.8,35.4,20.8z M35.4,28.5
    	c1.7,0,3.1-1.4,3.1-3.1c0-1.7-1.4-3.1-3.1-3.1c-1.7,0-3.1,1.4-3.1,3.1C32.3,27.1,33.7,28.5,35.4,28.5z"/>
    <path d="M9.2,20.8c2.5,0,4.6,2.1,4.6,4.6S11.8,30,9.2,30s-4.6-2.1-4.6-4.6S6.7,20.8,9.2,20.8z M9.2,28.5c1.7,0,3.1-1.4,3.1-3.1
    	c0-1.7-1.4-3.1-3.1-3.1c-1.7,0-3.1,1.4-3.1,3.1C6.2,27.1,7.5,28.5,9.2,28.5z"/>
    <path d="M0.1,16.5L7,5.7c0.1-0.2,0.4-0.4,0.6-0.4h8.5c0.4,0,0.8,0.3,0.8,0.8v19.2c0,0.4-0.3,0.8-0.8,0.8h-3.1v-1.5h2.3V6.9H8.1
    	L1.5,17.1v7.5h3.8v1.5H0.8c-0.4,0-0.8-0.3-0.8-0.8v-8.5C0,16.8,0,16.6,0.1,16.5z"/>
    <path d="M12.3,15.4V10H6.2V8.5h6.9c0.4,0,0.8,0.3,0.8,0.8v6.9c0,0.4-0.3,0.8-0.8,0.8H1.5v-1.5L12.3,15.4L12.3,15.4z"/>
    <path d="M16.2,0h29.2c0.4,0,0.8,0.3,0.8,0.8v24.6c0,0.4-0.3,0.8-0.8,0.8h-6.2v-1.5h5.4V1.5H16.9v23.1h14.6v1.5H16.2
    	c-0.4,0-0.8-0.3-0.8-0.8V0.8C15.4,0.3,15.7,0,16.2,0z"/>
    <path d="M40.8,21.5h4.6v1.5h-4.6V21.5z"/>
    <path d="M16.9,21.5H30v1.5H16.9V21.5z"/>
    <path d="M0.8,21.5h3.1v1.5H0.8V21.5z"/>
    <path d="M16.2,3.1h26.9v1.5H16.2V3.1z"/>
    <path d="M34.6,24.6h1.5v1.5h-1.5V24.6z"/>
    <path d="M8.5,24.6H10v1.5H8.5V24.6z"/>
  </symbol>
  <symbol viewBox="0 0 18 18" id="search" xmlns="http://www.w3.org/2000/svg">
    <path d="M17.4023 16.3898L13.2609 12.2484C14.2875 10.9969 14.9062 9.39375 14.9062 7.64648C14.9062 3.63867 11.6543 0.386719 7.64648 0.386719C3.63516 0.386719 0.386719 3.63867 0.386719 7.64648C0.386719 11.6543 3.63516 14.9062 7.64648 14.9062C9.39375 14.9062 10.9934 14.291 12.2449 13.2645L16.3863 17.4023C16.6676 17.6836 17.1211 17.6836 17.4023 17.4023C17.6836 17.1246 17.6836 16.6676 17.4023 16.3898ZM7.64648 13.4613C4.43672 13.4613 1.82812 10.8527 1.82812 7.64648C1.82812 4.44023 4.43672 1.82812 7.64648 1.82812C10.8527 1.82812 13.4648 4.44023 13.4648 7.64648C13.4648 10.8527 10.8527 13.4613 7.64648 13.4613Z"/>
  </symbol>
  <symbol viewBox="0 0 13.5 7.2" id="arrow-down" xmlns="http://www.w3.org/2000/svg">
    <path d="M13.4,0.1c-0.2-0.2-0.5-0.2-0.7,0L6.8,6.1L0.8,0.1C0.6,0,0.3,0,0.1,0.1C0,0.3,0,0.6,0.1,0.8l6.3,6.3
c0.1,0.1,0.2,0.1,0.3,0.1c0.1,0,0.2,0,0.3-0.1l6.3-6.3C13.5,0.6,13.5,0.3,13.4,0.1L13.4,0.1z"/>
  </symbol>

  <symbol viewBox="0 0 13.5 7.2" id="arrow-top" xmlns="http://www.w3.org/2000/svg">
    <path d="M0.1,7.1c0.2,0.2,0.5,0.2,0.7,0l5.9-5.9l5.9,5.9c0.2,0.2,0.5,0.2,0.7,0c0.2-0.2,0.2-0.5,0-0.7L7.1,0.1C7,0,6.9,0,6.8,0
	C6.6,0,6.5,0,6.4,0.1L0.1,6.4C0,6.6,0,6.9,0.1,7.1L0.1,7.1z"/>
  </symbol>
  <symbol viewBox="0 0 21 21" id="phone" xmlns="http://www.w3.org/2000/svg">
    <path d="M16.6,13c-0.4-0.4-0.9-0.7-1.5-0.7c-0.5,0-1.1,0.2-1.5,0.7l-1.4,1.4c-0.1-0.1-0.2-0.1-0.3-0.2c-0.2-0.1-0.3-0.2-0.4-0.2
  	c-1.3-0.8-2.5-1.9-3.6-3.3C7.2,10,6.8,9.4,6.5,8.8c0.4-0.3,0.7-0.7,1-1c0.1-0.1,0.2-0.3,0.4-0.4c0.9-0.9,0.9-2.1,0-3.1L6.7,3.1
  	C6.6,3,6.5,2.8,6.3,2.7C6.1,2.4,5.8,2.1,5.5,1.9C5.1,1.4,4.5,1.2,4,1.2S2.9,1.4,2.5,1.9c0,0,0,0,0,0L1,3.4C0.4,4,0.1,4.7,0,5.5
  	C-0.1,6.8,0.3,8,0.6,8.7c0.7,1.9,1.8,3.7,3.4,5.7c1.9,2.3,4.3,4.1,6.9,5.4c1,0.5,2.4,1.1,3.9,1.2c0.1,0,0.2,0,0.3,0
  	c1,0,1.9-0.4,2.6-1.1c0,0,0,0,0,0c0.2-0.3,0.5-0.5,0.8-0.8c0.2-0.2,0.4-0.4,0.6-0.6c0.4-0.5,0.7-1,0.7-1.5c0-0.5-0.2-1.1-0.7-1.5
  	L16.6,13z M18.2,17.7C18.2,17.7,18.2,17.7,18.2,17.7c-0.2,0.2-0.4,0.4-0.5,0.5c-0.3,0.3-0.6,0.6-0.9,0.9c-0.4,0.5-1,0.7-1.7,0.7
  	c-0.1,0-0.1,0-0.2,0c-1.3-0.1-2.5-0.6-3.5-1c-2.5-1.2-4.7-2.9-6.5-5.1c-1.5-1.8-2.5-3.5-3.2-5.3c-0.4-1.1-0.6-2-0.5-2.8
  	c0-0.5,0.2-0.9,0.6-1.3l1.5-1.5C3.6,2.5,3.8,2.4,4,2.4c0.3,0,0.5,0.2,0.6,0.3c0,0,0,0,0,0C4.9,3,5.2,3.2,5.5,3.5
  	C5.6,3.7,5.7,3.8,5.9,4l1.2,1.2c0.5,0.5,0.5,0.9,0,1.4C7,6.7,6.8,6.8,6.7,6.9C6.3,7.3,6,7.7,5.6,8c0,0,0,0,0,0
  	C5.2,8.4,5.3,8.8,5.4,9c0,0,0,0,0,0c0.3,0.8,0.8,1.5,1.4,2.3l0,0c1.2,1.5,2.5,2.7,3.9,3.6c0.2,0.1,0.4,0.2,0.5,0.3
  	c0.2,0.1,0.3,0.2,0.4,0.2c0,0,0,0,0.1,0c0.2,0.1,0.3,0.1,0.4,0.1c0.4,0,0.6-0.2,0.7-0.3l1.5-1.5c0.2-0.2,0.4-0.3,0.7-0.3
  	c0.3,0,0.5,0.2,0.6,0.3c0,0,0,0,0,0l2.4,2.4C18.6,16.7,18.6,17.2,18.2,17.7z"/>
  <path d="M11.3,5c1.2,0.2,2.2,0.7,3.1,1.6c0.8,0.8,1.4,1.9,1.6,3.1c0,0.3,0.3,0.5,0.6,0.5c0,0,0.1,0,0.1,0c0.3-0.1,0.5-0.4,0.5-0.7
  	c-0.2-1.4-0.9-2.7-1.9-3.7s-2.3-1.7-3.7-1.9c-0.3-0.1-0.6,0.2-0.7,0.5C10.8,4.6,11,4.9,11.3,5z"/>
  <path d="M21,9.3c-0.4-2.3-1.5-4.4-3.2-6.1C16.1,1.5,14,0.4,11.7,0C11.4,0,11.1,0.2,11,0.5c-0.1,0.3,0.2,0.6,0.5,0.7
  	C13.6,1.5,15.5,2.5,17,4c1.5,1.5,2.5,3.4,2.8,5.4c0,0.3,0.3,0.5,0.6,0.5c0,0,0.1,0,0.1,0C20.8,9.9,21,9.6,21,9.3z"/>
  </symbol>
</svg>
